HW/HW2/adder.vcd
$date
	Fri Sep 25 03:38:33 2015
$end
$version
	ModelSim Version 10.4a
$end
$timescale
	1ns
$end

$scope module testFullAdder $end
$var reg 1 ! a $end
$var reg 1 " b $end
$var reg 1 # carryin $end
$var wire 1 $ sum $end
$var wire 1 % carryout $end

$scope module adder $end
$var wire 1 $ out $end
$var wire 1 % carryout $end
$var wire 1 & a $end
$var wire 1 ' b $end
$var wire 1 ( carryin $end
$var wire 1 ) AxorB $end
$var wire 1 * AandB $end
$var wire 1 + XandC $end
$upscope $end
$upscope $end
$enddefinitions $end
#0
$dumpvars
0!
0"
0#
x$
x%
x)
x*
x+
0(
0'
0&
$end
#50
0*
0)
0+
#100
0%
0$
#1000
1"
1'
#1050
1)
#1100
1$
#2000
1!
0"
1&
0'
#3000
1"
1'
#3050
1*
0)
#3100
1%
0$
#4000
0!
0"
1#
0&
0'
1(
#4050
0*
1$
#4100
0%
#5000
1"
1'
#5050
1)
#5100
1+
0$
#5150
1%
#6000
1!
0"
1&
0'
#7000
1"
1'
#7050
1*
0)
#7100
0+
1$
